List of 'srppp_dm' objects for all years starting 2011 — srppp_list • srppphist
…
# Test the function
uses_cultures_rates(srppp_list[["2018"]], 116L)
#> # A tibble: 72 × 5
#>     pNbr use_nr application_area_de culture_de           rate_g_per_ha
#>    <int>  <int> <chr>               <chr>                        <dbl>
#>  1  6941      1 Feldbau             Gerste                          80
#>  2  6941      2 Feldbau             Triticale                       80
#>  3  6941      3 Feldbau             Zuckerrübe                      64
#>  4  6941      4 Feldbau             Winterroggen                    80
#>  5  6941      4 Feldbau             Triticale                       80
#>  6  6941      5 Feldbau             Weizen                          80
#>  7  6941      6 Gemüsebau           Rande                           64
#>  8  6941      7 Feldbau             Weizen                          80
#>  9  6941      8 Feldbau             Weizen                          80
#> 10  6941      9 Zierpflanzen        Zier- und Sportrasen            80
#> # ℹ 62 more rows

# Create a list of tables
uses_cultures_rates_list <- lapply(srppp_list, uses_cultures_rates, 116L)

# Combine the tables for all years
uses_cultures_rates_all_years <- bind_rows(uses_cultures_rates_list,
  .id = "year")
print(uses_cultures_rates_all_years)
#> # A tibble: 972 × 6
#>    year   pNbr use_nr application_area_de culture_de rate_g_per_ha
#>    <chr> <int>  <int> <chr>               <chr>              <dbl>
#>  1 2011   3741      1 Obstbau             Steinobst           24  
#>  2 2011   3741      2 Obstbau             Zwetschge           24  
#>  3 2011   3741      2 Obstbau             Kirsche             24  
#>  4 2011   3741      3 Feldbau             Weizen              80  
#>  5 2011   3741      4 Feldbau             Weizen              80  
#>  6 2011   3741      5 Feldbau             Roggen              80  
#>  7 2011   3741      6 Feldbau             Zuckerrübe          80  
#>  8 2011   3741      7 Feldbau             Weizen              80  
#>  9 2011   3841      1 Feldbau             Weizen              79.7
#> 10 2011   3841      2 Feldbau             Weizen              79.7
#> # ℹ 962 more rows

# Find names of original products and sales permissions (W-Numbers with dash)
uses_cultures_rates_all_years |>
  select(year, pNbr) |>
  unique() |>
  left_join(srppp_products[c("pNbr", "wNbr", "name")], by = "pNbr",
    relationship = "many-to-many")
#> # A tibble: 125 × 4
#>    year   pNbr wNbr   name           
#>    <chr> <int> <chr>  <chr>          
#>  1 2011   3741 4068   Alto 100 SL    
#>  2 2011   3841 4070   Tiptor         
#>  3 2011   4442 4374   Atemi 50 SL    
#>  4 2011   6814 5787   Fusatox R Fluid
#>  5 2011   6941 5772   Dexter         
#>  6 2011   6952 5958   Maxim Star     
#>  7 2011   6954 5945   Radius         
#>  8 2011   6955 5966   Solitaer       
#>  9 2011   7153 5995   Agora          
#> 10 2011   7153 5995-1 Desi>proXX     
#> # ℹ 115 more rows
…
